[
    {
        "name": "Unfair rats",
        "main": [
            {
                "name": "Maralen of the Mornsong",
                "image_path": "https://i.imgur.com/CSL1UDc.jpg",
                "quantity": 1
            },
            {
                "name": "Relentless Rats",
                "image_path": "https://i.imgur.com/CSL1UDc.jpg",
                "quantity": 63
            },
            {
                "name": "Swamp",
                "image_path": "https://i.imgur.com/CSL1UDc.jpg",
                "quantity": 35
            },
            {
                "name": "Thrumming Stone",
                "image_path": "https://i.imgur.com/CSL1UDc.jpg",
                "quantity": 1
            }
        ]
    },
    {
        "name": "Unfair rats",
        "main": [
            {
                "name": "Maralen of the Mornsong",
                "image_path": "https://i.imgur.com/CSL1UDc.jpg",
                "quantity": 1
            },
            {
                "name": "Relentless Rats",
                "image_path": "https://i.imgur.com/CSL1UDc.jpg",
                "quantity": 63
            },
            {
                "name": "Swamp",
                "image_path": "https://i.imgur.com/CSL1UDc.jpg",
                "quantity": 35
            },
            {
                "name": "Thrumming Stone",
                "image_path": "https://i.imgur.com/CSL1UDc.jpg",
                "quantity": 1
            }
        ]
    }
]